{
    "name": "InputControls",
    "maps": [
        {
            "name": "Rotator",
            "id": "44bac7cd-0e76-4eaf-b23c-62dbf1bf45e7",
            "actions": [
                {
                    "name": "Rotate Button",
                    "type": "Button",
                    "id": "1258d145-4295-468c-8bfb-593add3df8de",
                    "expectedControlType": "Button",
                    "processors": "",
                    "interactions": ""
                }
            ],
            "bindings": [
                {
                    "name": "",
                    "id": "07ca934f-8374-41ce-8890-0b78e29e9b07",
                    "path": "<Touchscreen>/primaryTouch/tap",
                    "interactions": "",
                    "processors": "",
                    "groups": "",
                    "action": "Rotate Button",
                    "isComposite": false,
                    "isPartOfComposite": false
                }
            ]
        }
    ],
    "controlSchemes": []
}